<?xml version="1.0" encoding="utf-8"?>
<!-- Generator: Adobe Illustrator 16.0.0, SVG Export Plug-In . SVG Version: 6.00 Build 0)  -->
<!DOCTYPE svg PUBLIC "-//W3C//DTD SVG 1.1//EN" "http://www.w3.org/Graphics/SVG/1.1/DTD/svg11.dtd">
<svg version="1.1" id="Layer_1" xmlns="http://www.w3.org/2000/svg" xmlns:xlink="http://www.w3.org/1999/xlink" x="0px" y="0px"
	 width="90px" height="21.585px" viewBox="0 0 90 21.585" enable-background="new 0 0 90 21.585" xml:space="preserve">
<g>
	<path fill="#1D1D1B" d="M10.829,10.416c-0.082-0.616-0.29-1.173-0.626-1.669C9.714,8.079,8.955,7.746,7.928,7.746
		c-1.466,0-2.469,0.724-3.008,2.17c-0.285,0.768-0.428,1.788-0.428,3.059c0,1.211,0.141,2.187,0.425,2.923
		c0.515,1.396,1.486,2.094,2.912,2.094c1.011,0,1.729-0.278,2.153-0.832c0.425-0.554,0.683-1.271,0.774-2.155h4.419
		c-0.102,1.317-0.575,2.563-1.423,3.738c-1.354,1.896-3.358,2.842-6.013,2.842c-2.655,0-4.608-0.786-5.862-2.358
		C0.627,17.654,0,15.607,0,13.088c0-2.844,0.694-5.056,2.083-6.637C3.469,4.87,5.384,4.079,7.826,4.079
		c2.077,0,3.775,0.466,5.099,1.399c1.322,0.932,2.105,2.577,2.348,4.938H10.829z"/>
	<path fill="#1D1D1B" d="M23.535,10.954c0.803-0.102,1.379-0.228,1.726-0.381c0.619-0.262,0.93-0.672,0.93-1.229
		c0-0.678-0.238-1.147-0.713-1.405c-0.475-0.258-1.171-0.387-2.091-0.387c-1.032,0-1.762,0.253-2.191,0.76
		c-0.307,0.376-0.512,0.883-0.613,1.522h-4.176c0.091-1.448,0.498-2.638,1.217-3.568c1.147-1.458,3.115-2.187,5.904-2.187
		c1.817,0,3.43,0.358,4.839,1.074c1.41,0.716,2.116,2.073,2.116,4.07v7.604c0,0.528,0.01,1.166,0.03,1.917
		c0.03,0.566,0.117,0.95,0.259,1.152c0.141,0.202,0.355,0.367,0.639,0.499v0.631h-4.705c-0.132-0.332-0.223-0.646-0.273-0.939
		c-0.05-0.293-0.091-0.627-0.122-1.001c-0.599,0.646-1.292,1.196-2.073,1.649c-0.935,0.534-1.992,0.801-3.17,0.801
		c-1.504,0-2.747-0.428-3.727-1.282c-0.98-0.856-1.471-2.069-1.471-3.638c0-2.035,0.79-3.508,2.366-4.419
		c0.865-0.496,2.136-0.85,3.816-1.063L23.535,10.954z M26.176,12.979c-0.276,0.171-0.554,0.311-0.836,0.417
		c-0.281,0.106-0.666,0.207-1.156,0.297l-0.98,0.182c-0.919,0.163-1.581,0.36-1.985,0.592c-0.683,0.396-1.024,1.009-1.024,1.839
		c0,0.739,0.208,1.273,0.623,1.604c0.416,0.328,0.921,0.493,1.516,0.493c0.943,0,1.812-0.273,2.606-0.821
		c0.793-0.546,1.206-1.545,1.238-2.993V12.979z"/>
	<path fill="#1D1D1B" d="M36.405,15.733c0.091,0.768,0.288,1.314,0.592,1.637c0.534,0.575,1.525,0.864,2.971,0.864
		c0.848,0,1.523-0.126,2.024-0.378c0.499-0.253,0.75-0.631,0.75-1.137c0-0.485-0.204-0.854-0.607-1.106
		c-0.405-0.252-1.906-0.686-4.504-1.301c-1.87-0.461-3.19-1.042-3.958-1.739c-0.769-0.686-1.153-1.675-1.153-2.968
		c0-1.525,0.598-2.836,1.796-3.932C35.514,4.578,37.2,4.03,39.374,4.03c2.062,0,3.742,0.413,5.041,1.239
		c1.299,0.824,2.045,2.249,2.237,4.273h-4.322c-0.061-0.559-0.217-1-0.469-1.326c-0.474-0.589-1.279-0.883-2.419-0.883
		c-0.936,0-1.604,0.147-2.001,0.442c-0.399,0.293-0.598,0.639-0.598,1.033c0,0.496,0.212,0.856,0.634,1.079
		c0.423,0.233,1.921,0.633,4.495,1.196c1.716,0.402,3.005,1.014,3.865,1.832c0.851,0.829,1.276,1.865,1.276,3.108
		c0,1.637-0.61,2.974-1.829,4.009c-1.22,1.036-3.104,1.554-5.654,1.554c-2.601,0-4.521-0.549-5.761-1.649
		c-1.24-1.099-1.859-2.5-1.859-4.202H36.405z"/>
	<path fill="#1D1D1B" d="M47.371,7.697V4.638h2.307V0h4.273v4.638h2.695v3.059H53.95v8.751c0,0.678,0.087,1.102,0.258,1.269
		c0.173,0.167,0.701,0.25,1.584,0.25c0.132,0,0.272-0.006,0.419-0.018c0.147-0.012,0.292-0.031,0.434-0.055v3.229l-2.049,0.122
		c-2.045,0.071-3.441-0.284-4.191-1.064c-0.485-0.495-0.728-1.259-0.728-2.292V7.697H47.371z"/>
	<path fill="#1D1D1B" d="M62.499,4.468v9.988c0,0.942,0.111,1.653,0.331,2.129c0.392,0.841,1.161,1.261,2.305,1.261
		c1.466,0,2.471-0.598,3.012-1.793c0.281-0.648,0.422-1.505,0.422-2.569V4.468h4.395v16.559h-4.201v-2.333
		c-0.041,0.052-0.141,0.202-0.304,0.456c-0.161,0.252-0.354,0.474-0.575,0.666c-0.677,0.605-1.329,1.02-1.96,1.243
		c-0.631,0.221-1.372,0.332-2.218,0.332c-2.443,0-4.09-0.878-4.938-2.636c-0.475-0.973-0.712-2.407-0.712-4.302V4.468H62.499z"/>
	<path fill="#1D1D1B" d="M79.292,15.733c0.091,0.768,0.289,1.314,0.592,1.637c0.534,0.575,1.525,0.864,2.972,0.864
		c0.848,0,1.523-0.126,2.024-0.378c0.5-0.253,0.75-0.631,0.75-1.137c0-0.485-0.204-0.854-0.607-1.106
		c-0.405-0.252-1.906-0.686-4.504-1.301c-1.869-0.461-3.189-1.042-3.958-1.739c-0.769-0.686-1.153-1.675-1.153-2.968
		c0-1.525,0.598-2.836,1.797-3.932c1.197-1.096,2.883-1.644,5.056-1.644c2.063,0,3.742,0.413,5.042,1.239
		c1.299,0.824,2.045,2.249,2.236,4.273h-4.322c-0.061-0.559-0.217-1-0.469-1.326c-0.474-0.589-1.279-0.883-2.419-0.883
		c-0.937,0-1.604,0.147-2.001,0.442c-0.399,0.293-0.598,0.639-0.598,1.033c0,0.496,0.212,0.856,0.634,1.079
		c0.424,0.233,1.921,0.633,4.495,1.196c1.716,0.402,3.004,1.014,3.865,1.832C89.575,13.743,90,14.779,90,16.022
		c0,1.637-0.61,2.974-1.829,4.009c-1.22,1.036-3.104,1.554-5.654,1.554c-2.601,0-4.521-0.549-5.761-1.649
		c-1.24-1.099-1.859-2.5-1.859-4.202H79.292z"/>
</g>
</svg>
